
<svg xmlns="http://www.w3.org/2000/svg" version="1.1" xmlns:xlink="http://www.w3.org/1999/xlink" preserveAspectRatio="none" x="0px" y="0px" width="200px" height="200px" viewBox="0 0 200 200">
<defs>
<g id="Layer1_0_MEMBER_1_FILL">
<path fill="#FFFFFF" stroke="none" d="
M 121 282.3
L 121 295.65
Q 123.5 298 127 298
L 152 298
Q 156.15 298 159.05 295.05 162 292.15 162 288 162 284.65 159.95 281.95 158 279.35 154.85 278.4 154.3 274.4 151.2 271.7 148.1 269 144 269 140.8 269 138.15 270.65 135.5 272.3 134.15 275.05
L 133 275
Q 130.5 275 128.4 276.45 126.35 277.85 125.5 280.1 122.8 280.6 121 282.3 Z"/>
</g>

<path id="Layer1_0_MEMBER_0_1_STROKES" stroke="#4D4D4D" stroke-width="5" stroke-linejoin="round" stroke-linecap="round" fill="none" d="
M 401.55 654.55
Q 389.7 650.6 384 639.55 378.35 628.5 382.3 616.65 384.65 609.05 390.5 603.85 396.2 598.65 403.6 596.75 389.85 593.9 378 600.05 364.1 607.15 359.2 622.15 354.45 637 361.6 651.1 368.7 665.15 383.55 669.9 398.55 674.8 412.45 667.65 424.45 661.65 430.15 648.85 424.3 653.75 416.7 655.35 409 657.1 401.55 654.55 Z"/>

<path id="Layer1_0_MEMBER_2_1_STROKES" stroke="#4D4D4D" stroke-width="5" stroke-linejoin="round" stroke-linecap="round" fill="none" d="
M 376.45 671.8
L 376.1 671.8 376.45 668.6
Q 376.45 658.05 369 650.75 361.6 643.35 351.15 643.35 341.35 643.35 334.25 649.8 327.15 656.15 326.05 665.6 321.75 662.3 316.4 662.3 309.75 662.3 305.15 666.9 300.6 671.45 300.6 678.1
L 300.6 678.25
Q 299.5 678.1 297.45 678.1 289.55 678.1 284 683.65 278.45 689.15 278.45 697.05 278.45 704.95 284 710.5 289.55 716 297.45 716
L 376.45 716
Q 385.6 716 392.05 709.55 398.55 703.05 398.55 693.9 398.55 684.75 392.05 678.25 385.6 671.8 376.45 671.8 Z"/>

<path id="Layer1_0_MEMBER_3_1_STROKES" stroke="#4D4D4D" stroke-width="5" stroke-linejoin="round" stroke-linecap="round" fill="none" d="
M 303.75 728.65
L 294.25 747.6
M 360.65 728.65
L 351.15 747.6
M 332.2 728.65
L 322.7 747.6"/>
</defs>

<g transform="matrix( 1, 0, 0, 1, -254.3,-571.7) ">
<use xlink:href="#Layer1_0_MEMBER_0_1_STROKES"/>
</g>

<g transform="matrix( 3.1600799560546875, 0, 0, 3.1600799560546875, -358.2,-787.9) ">
<use xlink:href="#Layer1_0_MEMBER_1_FILL"/>
</g>

<g transform="matrix( 1, 0, 0, 1, -254.3,-571.7) ">
<use xlink:href="#Layer1_0_MEMBER_2_1_STROKES"/>
</g>

<g transform="matrix( 1, 0, 0, 1, -254.3,-571.7) ">
<use xlink:href="#Layer1_0_MEMBER_3_1_STROKES"/>
</g>
</svg>
