
<svg xmlns="http://www.w3.org/2000/svg" version="1.1" xmlns:xlink="http://www.w3.org/1999/xlink" preserveAspectRatio="none" x="0px" y="0px" width="200px" height="200px" viewBox="0 0 200 200">
<defs>
<g id="Layer1_0_MEMBER_1_FILL">
<path fill="#FFFFFF" stroke="none" d="
M 201 282.3
L 201 295.65
Q 203.5 298 207 298
L 232 298
Q 236.15 298 239.05 295.05 242 292.15 242 288 242 284.65 239.95 281.95 238 279.35 234.85 278.4 234.3 274.4 231.2 271.7 228.1 269 224 269 220.8 269 218.15 270.65 215.5 272.3 214.15 275.05
L 213 275
Q 210.5 275 208.4 276.45 206.35 277.85 205.5 280.1 202.8 280.6 201 282.3 Z"/>
</g>

<path id="Layer1_0_MEMBER_0_1_STROKES" stroke="#4D4D4D" stroke-width="5" stroke-linejoin="round" stroke-linecap="round" fill="none" d="
M 654.35 654.55
Q 642.5 650.6 636.8 639.55 631.15 628.5 635.1 616.65 637.45 609.05 643.3 603.85 649 598.65 656.4 596.75 642.65 593.9 630.8 600.05 616.9 607.15 612 622.15 607.3 637 614.4 651.1 621.5 665.15 636.35 669.9 651.35 674.8 665.25 667.65 677.25 661.65 682.95 648.85 677.1 653.75 669.55 655.35 661.8 657.1 654.35 654.55 Z"/>

<path id="Layer1_0_MEMBER_2_1_STROKES" stroke="#4D4D4D" stroke-width="5" stroke-linejoin="round" stroke-linecap="round" fill="none" d="
M 629.25 671.8
L 628.9 671.8 629.25 668.6
Q 629.25 658.05 621.8 650.75 614.4 643.35 603.95 643.35 594.15 643.35 587.05 649.8 579.95 656.15 578.85 665.6 574.55 662.3 569.2 662.3 562.55 662.3 558 666.9 553.4 671.45 553.4 678.1
L 553.4 678.25
Q 552.3 678.1 550.25 678.1 542.35 678.1 536.8 683.65 531.3 689.15 531.3 697.05 531.3 704.95 536.8 710.5 542.35 716 550.25 716
L 629.25 716
Q 638.4 716 644.9 709.55 651.35 703.05 651.35 693.9 651.35 684.75 644.9 678.25 638.4 671.8 629.25 671.8 Z"/>

<path id="Layer1_0_MEMBER_3_1_STROKES" stroke="#4D4D4D" stroke-width="5" stroke-linejoin="round" stroke-linecap="round" fill="none" d="
M 607.1 736.55
L 607.1 736.6 607.125 736.575 607.1 736.55 597.65 730.25
M 607.1 725.5
L 607.1 736.55
M 569.2 725.5
L 569.2 736.575 578.7 730.25
M 607.125 736.575
L 616.6 730.25
M 597.65 742.9
L 607.1 736.6 607.1 747.6
M 607.125 736.575
L 616.6 742.9
M 578.7 742.9
L 569.2 736.575 569.2 747.6
M 559.7 742.9
L 569.2 736.575 559.7 730.25"/>
</defs>

<g transform="matrix( 1, 0, 0, 1, -507.1,-571.7) ">
<use xlink:href="#Layer1_0_MEMBER_0_1_STROKES"/>
</g>

<g transform="matrix( 3.1600799560546875, 0, 0, 3.1600799560546875, -611,-787.9) ">
<use xlink:href="#Layer1_0_MEMBER_1_FILL"/>
</g>

<g transform="matrix( 1, 0, 0, 1, -507.1,-571.7) ">
<use xlink:href="#Layer1_0_MEMBER_2_1_STROKES"/>
</g>

<g transform="matrix( 1, 0, 0, 1, -507.1,-571.7) ">
<use xlink:href="#Layer1_0_MEMBER_3_1_STROKES"/>
</g>
</svg>
