
<svg xmlns="http://www.w3.org/2000/svg" version="1.1" xmlns:xlink="http://www.w3.org/1999/xlink" preserveAspectRatio="none" x="0px" y="0px" width="200px" height="200px" viewBox="0 0 200 200">
<defs>
<g id="Layer1_0_MEMBER_1_FILL">
<path fill="#FFFFFF" stroke="none" d="
M 296 188
Q 294.35 188 293.45 189.35
L 284.45 203.35
Q 283.5 204.9 284.35 206.4 285.15 208 287 208
L 289.7 208 286.4 213.45
Q 286 214.05 286 215
L 293.7 215 307.9 203.3
Q 308.6 202.7 308.9 201.8 309.15 200.85 308.8 199.95 308.45 199.05 307.7 198.55 306.95 198 306 198
L 303.2 198 307.3 192.85
Q 308.55 191.35 307.7 189.7 306.9 188 305 188
L 296 188 Z"/>
</g>

<path id="Layer1_0_MEMBER_0_1_STROKES" stroke="#4D4D4D" stroke-width="5" stroke-linejoin="round" stroke-linecap="round" fill="none" d="
M 907.35 349.45
L 903.4 349.6
Q 904.15 346.15 904.15 343.15 904.15 330 894.85 320.7 885.7 311.55 872.55 311.55 859.75 311.55 850.6 320.2 841.6 329.05 840.95 341.7 835.75 336.8 828.3 336.8 820.4 336.8 814.9 342.35 809.35 347.85 809.35 355.75 809.35 359.7 810.65 362.4
L 806.2 362.1
Q 797.05 362.1 790.55 368.55 784.1 375.05 784.1 384.2 784.1 393.4 790.55 399.85 797.05 406.35 806.2 406.35
L 907.35 406.35
Q 919 406.35 927.4 397.95 935.75 389.6 935.75 377.9 935.75 366.05 927.4 357.85 919 349.45 907.35 349.45 Z"/>

<path id="Layer1_0_MEMBER_2_1_STROKES" stroke="#4D4D4D" stroke-width="5" stroke-linejoin="round" stroke-linecap="round" fill="none" d="
M 859.9 387.4
L 831.5 387.4 803.05 431.6 828.3 431.6 809.35 463.2 863.1 419 834.65 419 859.9 387.4 Z"/>

<path id="Layer1_0_MEMBER_3_1_STROKES" stroke="#4D4D4D" stroke-width="5" stroke-linejoin="round" stroke-linecap="round" fill="none" d="
M 907.35 419
L 897.85 437.95
M 878.9 419
L 869.4 437.95
M 853.6 444.25
L 844.1 463.2
M 882.05 444.25
L 872.55 463.2"/>
</defs>

<g transform="matrix( 1, 0, 0, 1, -759.9,-287.35) ">
<use xlink:href="#Layer1_0_MEMBER_0_1_STROKES"/>
</g>

<g transform="matrix( 3.1600799560546875, 0, 0, 3.1600799560546875, -863.8,-503.55) ">
<use xlink:href="#Layer1_0_MEMBER_1_FILL"/>
</g>

<g transform="matrix( 1, 0, 0, 1, -759.9,-287.35) ">
<use xlink:href="#Layer1_0_MEMBER_2_1_STROKES"/>
</g>

<g transform="matrix( 1, 0, 0, 1, -759.9,-287.35) ">
<use xlink:href="#Layer1_0_MEMBER_3_1_STROKES"/>
</g>
</svg>
