<svg width="14" height="14" viewBox="0 0 14 14" fill="none" xmlns="http://www.w3.org/2000/svg">
<path fill-rule="evenodd" clip-rule="evenodd" d="M0 12.7274L12.7274 0L13.6273 0.899962L0.899962 13.6273L0 12.7274Z" fill="#A0A0A0"/>
<path fill-rule="evenodd" clip-rule="evenodd" d="M1.27262 0.0903635L14 12.8177L13.1 13.7177L0.372658 0.990325L1.27262 0.0903635Z" fill="#A0A0A0"/>
</svg>
