<svg width="22" height="20" viewBox="0 0 22 20" fill="none" xmlns="http://www.w3.org/2000/svg">
<path d="M19.5402 6.2069H18.4815C18.4575 6.2069 18.4356 6.1959 18.4187 6.17902L12.4417 0.201993C12.1724 -0.0673312 11.7357 -0.0673312 11.4664 0.201993C11.197 0.471318 11.197 0.907979 11.4664 1.1773L12.309 2.01993C13.8541 3.56501 12.7598 6.20686 10.5747 6.20686C8.38962 6.20686 7.29533 3.565 8.84042 2.01992L9.68305 1.1773C9.95237 0.907979 9.95237 0.471318 9.68305 0.201993C9.41376 -0.0673312 8.97706 -0.0673312 8.70774 0.201993L2.73071 6.17902C2.71379 6.19594 2.69186 6.2069 2.66793 6.2069H1.60921C0.721889 6.2069 0 6.92879 0 7.81607V8.73562C0 10.1464 1.64686 11.3176 1.87879 12.7092L2.80577 18.2712C2.97277 19.2729 3.83102 20 4.8466 20H16.5048C17.5278 20 18.4083 19.2363 18.553 18.2236L19.3417 12.7027C19.5394 11.3187 21.1494 10.1337 21.1494 8.73562V7.81607C21.1494 6.92879 20.4275 6.2069 19.5402 6.2069ZM19.7701 8.73562C19.7701 8.86239 19.667 8.9655 19.5402 8.9655C19.3285 8.9655 12.9458 8.9655 12.6437 8.9655C12.2629 8.9655 11.954 9.27427 11.954 9.65517C11.954 10.036 12.2628 10.3448 12.6437 10.3448C15.6213 10.3448 17.9086 12.9821 17.4875 15.9297L17.1876 18.0286C17.1394 18.3662 16.8459 18.6207 16.5048 18.6207H4.8466C4.50809 18.6207 4.22199 18.3784 4.16631 18.0444L3.80742 15.891C3.32356 12.9877 5.56243 10.3448 8.50574 10.3448C8.8866 10.3448 9.19541 10.0361 9.19541 9.65517C9.19541 9.27431 8.88664 8.9655 8.50574 8.9655C8.20316 8.9655 1.82005 8.9655 1.60921 8.9655C1.48244 8.9655 1.37934 8.86235 1.37934 8.73562V7.81607C1.37934 7.6893 1.48248 7.5862 1.60921 7.5862H19.5402C19.667 7.5862 19.7701 7.68934 19.7701 7.81607V8.73562Z" fill="white"/>
</svg>
