<svg width="22" height="22" viewBox="0 0 22 22" fill="none" xmlns="http://www.w3.org/2000/svg">
<g clip-path="url(#clip0_1184_6281)">
<path d="M15.4 3.18998C14.85 2.85998 14.19 2.52998 13.53 2.41998C8.47 0.879976 3.3 3.95998 2.2 9.12998C2.09 9.78998 2.09 10.34 1.98 11C1.98 11.55 1.54 11.99 0.99 11.99C0.44 11.99 0 11.55 0 11C0.11 7.58998 1.32 4.83998 3.96 2.63998C5.5 1.31998 7.26 0.549976 9.24 0.219976C11.88 -0.220024 14.41 0.329976 16.72 1.64998C16.83 1.64998 16.83 1.75998 16.94 1.75998C17.38 1.31998 17.82 0.879976 18.26 0.439976C18.37 0.329976 18.59 0.109976 18.81 0.109976C19.36 -2.41697e-05 20.02 0.439976 20.02 0.989976C20.02 2.41998 20.02 3.73998 20.02 5.16998C20.02 5.60997 19.69 6.04998 19.25 6.04998C19.14 6.04998 19.14 6.04998 19.03 6.04998C17.71 6.04998 16.39 6.04998 15.07 6.04998C14.74 6.04998 14.41 5.93998 14.19 5.71997C13.86 5.27997 13.86 4.83998 14.3 4.39998C14.63 4.06998 14.96 3.73998 15.29 3.40998C15.29 3.29998 15.29 3.29998 15.4 3.18998Z" fill="#87CA47"/>
<path d="M6.60047 18.81C7.48047 19.36 8.47047 19.69 9.46047 19.8C12.4305 20.24 15.0705 19.47 17.2705 17.38C18.8105 15.95 19.6905 14.19 19.9105 12.1C19.9105 11.77 20.0205 11.33 20.0205 11C20.0205 10.45 20.4605 10.01 21.0105 10.01C21.5605 10.01 22.0005 10.45 22.0005 11C22.0005 12.43 21.6705 13.97 21.1205 15.29C19.6905 18.59 17.1605 20.68 13.7505 21.67C10.7805 22.44 7.92047 22 5.28047 20.46C5.17047 20.35 5.06047 20.35 4.95047 20.46C4.51047 20.9 4.18047 21.23 3.74047 21.67C3.41047 22 2.97047 22.11 2.64047 21.89C2.20047 21.78 1.98047 21.45 1.98047 20.9C1.98047 19.58 1.98047 18.26 1.98047 17.05C1.98047 16.5 2.42047 16.06 2.97047 16.06C4.29047 16.06 5.61047 16.06 6.93047 16.06C7.37047 16.06 7.70047 16.28 7.92047 16.72C8.14047 17.16 8.03047 17.49 7.70047 17.82C7.37047 18.15 6.93047 18.48 6.60047 18.81Z" fill="#87CA47"/>
</g>
<defs>
<clipPath id="clip0_1184_6281">
<rect width="22" height="22" fill="white"/>
</clipPath>
</defs>
</svg>
