<svg width="15" height="18" viewBox="0 0 15 18" fill="none" xmlns="http://www.w3.org/2000/svg">
<path d="M14.2692 8.53979C14.0322 8.30113 13.7445 8.18189 13.4058 8.18189H12.9998V5.72721C12.9998 4.15905 12.4414 2.81258 11.3241 1.68758C10.2069 0.562525 8.86994 0 7.31243 0C5.75497 0 4.4177 0.562525 3.30062 1.68753C2.18337 2.81258 1.62492 4.15901 1.62492 5.72721V8.18189H1.21872C0.880293 8.18189 0.592465 8.30113 0.355461 8.53979C0.118457 8.77827 0 9.0681 0 9.40921V16.7728C0 17.1136 0.118502 17.4035 0.355461 17.6422C0.592465 17.8806 0.880293 18 1.21872 18H13.4061C13.7448 18 14.0324 17.8808 14.2695 17.6422C14.5063 17.4035 14.625 17.1136 14.625 16.7728V9.40908C14.6252 9.06824 14.5063 8.77845 14.2692 8.53979ZM10.5624 8.18189H4.06246V5.72721C4.06246 4.82384 4.3799 4.05248 5.01465 3.41339C5.64949 2.77421 6.41538 2.45468 7.31257 2.45468C8.20985 2.45468 8.97555 2.77416 9.61044 3.41339C10.245 4.05244 10.5624 4.82384 10.5624 5.72721V8.18189Z" fill="#C1C7D0"/>
</svg>
