<svg width="21" height="20" viewBox="0 0 21 20" fill="none" xmlns="http://www.w3.org/2000/svg">
<path d="M18.8633 4.375H16.9883C15.9113 4.375 15.0352 5.25117 15.0352 6.32812V18.0469C15.0352 19.1238 15.9113 20 16.9883 20H18.8633C19.9402 20 20.8164 19.1238 20.8164 18.0469V6.32812C20.8164 5.25117 19.9402 4.375 18.8633 4.375ZM19.2539 18.0469C19.2539 18.2623 19.0787 18.4375 18.8633 18.4375H16.9883C16.7729 18.4375 16.5977 18.2623 16.5977 18.0469V6.32812C16.5977 6.11273 16.7729 5.9375 16.9883 5.9375H18.8633C19.0787 5.9375 19.2539 6.11273 19.2539 6.32812V18.0469Z" fill="#252525"/>
<path d="M4.64453 10.3125H2.76953C1.69258 10.3125 0.816406 11.1887 0.816406 12.2656V18.0469C0.816406 19.1238 1.69258 20 2.76953 20H4.64453C5.72148 20 6.59766 19.1238 6.59766 18.0469V12.2656C6.59766 11.1887 5.72148 10.3125 4.64453 10.3125ZM5.03516 18.0469C5.03516 18.2623 4.85992 18.4375 4.64453 18.4375H2.76953C2.55414 18.4375 2.37891 18.2623 2.37891 18.0469V12.2656C2.37891 12.0502 2.55414 11.875 2.76953 11.875H4.64453C4.85992 11.875 5.03516 12.0502 5.03516 12.2656V18.0469Z" fill="#252525"/>
<path d="M11.7539 0H9.87891C8.80195 0 7.92578 0.876172 7.92578 1.95312V18.0469C7.92578 19.1238 8.80195 20 9.87891 20H11.7539C12.8309 20 13.707 19.1238 13.707 18.0469V1.95312C13.707 0.876172 12.8309 0 11.7539 0ZM12.1445 18.0469C12.1445 18.2623 11.9693 18.4375 11.7539 18.4375H9.87891C9.66352 18.4375 9.48828 18.2623 9.48828 18.0469V1.95312C9.48828 1.73773 9.66352 1.5625 9.87891 1.5625H11.7539C11.9693 1.5625 12.1445 1.73773 12.1445 1.95312V18.0469Z" fill="#252525"/>
</svg>
