<svg width="22" height="20" viewBox="0 0 22 20" fill="none" xmlns="http://www.w3.org/2000/svg">
<path d="M19.5402 6.2069H18.4439C18.4355 6.19757 18.4276 6.18794 18.4187 6.17902L12.4417 0.201993C12.1724 -0.0673312 11.7357 -0.0673312 11.4664 0.201993C11.197 0.471318 11.197 0.907979 11.4664 1.1773L16.4959 6.20686H4.65345L9.68305 1.1773C9.95237 0.907979 9.95237 0.471318 9.68305 0.201993C9.41376 -0.0673312 8.97706 -0.0673312 8.70774 0.201993L2.73071 6.17902C2.72175 6.18798 2.7139 6.19761 2.70551 6.2069H1.60921C0.721889 6.2069 0 6.92879 0 7.81607V8.73562C0 9.58081 0.65493 10.2759 1.48393 10.34L2.80577 18.2712C2.97277 19.2729 3.83102 20 4.8466 20H16.5048C17.5278 20 18.4083 19.2363 18.553 18.2236L19.6794 10.3388C20.5018 10.268 21.1494 9.57602 21.1494 8.73562V7.81607C21.1494 6.92879 20.4275 6.2069 19.5402 6.2069ZM19.7701 8.73562C19.7701 8.86239 19.667 8.9655 19.5402 8.9655C19.3285 8.9655 12.9458 8.9655 12.6437 8.9655C12.2629 8.9655 11.954 9.27427 11.954 9.65517C11.954 10.036 12.2628 10.3448 12.6437 10.3448H18.2853L17.1876 18.0286C17.1394 18.3662 16.8459 18.6207 16.5048 18.6207H4.8466C4.50809 18.6207 4.22199 18.3784 4.16631 18.0444L2.88309 10.3448H8.50574C8.8866 10.3448 9.19541 10.0361 9.19541 9.65517C9.19541 9.27431 8.88664 8.9655 8.50574 8.9655C8.20316 8.9655 1.82005 8.9655 1.60921 8.9655C1.48244 8.9655 1.37934 8.86235 1.37934 8.73562V7.81607C1.37934 7.6893 1.48248 7.5862 1.60921 7.5862H19.5402C19.667 7.5862 19.7701 7.68934 19.7701 7.81607V8.73562Z" fill="#252525"/>
<path d="M6.43674 12.7241C6.05588 12.7241 5.74707 13.0329 5.74707 13.4138V17.5517C5.74707 17.9326 6.05584 18.2414 6.43674 18.2414C6.81764 18.2414 7.12641 17.9326 7.12641 17.5517V13.4137C7.12641 13.0329 6.81764 12.7241 6.43674 12.7241Z" fill="#252525"/>
<path d="M10.5744 12.7241C10.1936 12.7241 9.88477 13.0329 9.88477 13.4138V17.5517C9.88477 17.9326 10.1935 18.2414 10.5744 18.2414C10.9553 18.2414 11.2641 17.9326 11.2641 17.5517V13.4137C11.2641 13.0329 10.9553 12.7241 10.5744 12.7241Z" fill="#252525"/>
<path d="M14.7131 12.7241C14.3323 12.7241 14.0234 13.0329 14.0234 13.4138V17.5517C14.0234 17.9326 14.3322 18.2414 14.7131 18.2414C15.094 18.2414 15.4028 17.9326 15.4028 17.5517V13.4137C15.4028 13.0329 15.094 12.7241 14.7131 12.7241Z" fill="#252525"/>
</svg>
