<svg width="17" height="18" viewBox="0 0 17 18" fill="none" xmlns="http://www.w3.org/2000/svg">
<mask id="path-1-inside-1_680_8444" fill="white">
<path d="M11.9 0H5.1C2.28792 0 0 2.42185 0 5.39856V9.59744C0 12.4737 2.13577 14.8316 4.81667 14.9879V17.4904C4.81667 17.7715 5.03313 18 5.29918 18C5.4264 18 5.54682 17.9466 5.63777 17.8503L6.1693 17.2877C7.565 15.81 9.42112 14.996 11.3954 14.996H11.9C14.7121 14.996 17 12.5741 17 9.59744V5.39856C17 2.42185 14.7121 0 11.9 0ZM4.81667 8.69768C4.19163 8.69768 3.68333 8.15962 3.68333 7.498C3.68333 6.83638 4.19163 6.29832 4.81667 6.29832C5.4417 6.29832 5.95 6.83638 5.95 7.498C5.95 8.15962 5.44142 8.69768 4.81667 8.69768ZM8.5 8.69768C7.87497 8.69768 7.36667 8.15962 7.36667 7.498C7.36667 6.83638 7.87497 6.29832 8.5 6.29832C9.12503 6.29832 9.63333 6.83638 9.63333 7.498C9.63333 8.15962 9.12475 8.69768 8.5 8.69768ZM12.1833 8.69768C11.5583 8.69768 11.05 8.15962 11.05 7.498C11.05 6.83638 11.5583 6.29832 12.1833 6.29832C12.8084 6.29832 13.3167 6.83638 13.3167 7.498C13.3167 8.15962 12.8081 8.69768 12.1833 8.69768Z"/>
</mask>
<path d="M4.81667 14.9879H5.81667V14.0445L4.87485 13.9896L4.81667 14.9879ZM5.63777 17.8503L4.91085 17.1636L4.91085 17.1636L5.63777 17.8503ZM6.1693 17.2877L6.89622 17.9744L6.89629 17.9743L6.1693 17.2877ZM11.9 -1H5.1V1H11.9V-1ZM5.1 -1C1.68279 -1 -1 1.92393 -1 5.39856H1C1 2.91978 2.89304 1 5.1 1V-1ZM-1 5.39856V9.59744H1V5.39856H-1ZM-1 9.59744C-1 12.957 1.50369 15.7965 4.75848 15.9862L4.87485 13.9896C2.76785 13.8668 1 11.9904 1 9.59744H-1ZM3.81667 14.9879V17.4904H5.81667V14.9879H3.81667ZM3.81667 17.4904C3.81667 18.2717 4.43024 19 5.29918 19V17C5.63603 17 5.81667 17.2712 5.81667 17.4904H3.81667ZM5.29918 19C5.71523 19 6.09449 18.8231 6.36469 18.5371L4.91085 17.1636C4.99915 17.0701 5.13757 17 5.29918 17V19ZM6.36469 18.5371L6.89622 17.9744L5.44238 16.601L4.91085 17.1636L6.36469 18.5371ZM6.89629 17.9743C8.10941 16.6899 9.70531 15.996 11.3954 15.996V13.996C9.13692 13.996 7.02059 14.93 5.44231 16.601L6.89629 17.9743ZM11.3954 15.996H11.9V13.996H11.3954V15.996ZM11.9 15.996C15.3172 15.996 18 13.0721 18 9.59744H16C16 12.0762 14.107 13.996 11.9 13.996V15.996ZM18 9.59744V5.39856H16V9.59744H18ZM18 5.39856C18 1.92393 15.3172 -1 11.9 -1V1C14.107 1 16 2.91978 16 5.39856H18ZM4.81667 7.69768C4.80009 7.69768 4.77365 7.69217 4.74253 7.65923C4.71055 7.62537 4.68333 7.57032 4.68333 7.498H2.68333C2.68333 8.65755 3.58651 9.69768 4.81667 9.69768V7.69768ZM4.68333 7.498C4.68333 7.42568 4.71055 7.37063 4.74253 7.33677C4.77365 7.30384 4.80009 7.29832 4.81667 7.29832V5.29832C3.58651 5.29832 2.68333 6.33846 2.68333 7.498H4.68333ZM4.81667 7.29832C4.83325 7.29832 4.85968 7.30384 4.8908 7.33677C4.92278 7.37063 4.95 7.42568 4.95 7.498H6.95C6.95 6.33846 6.04682 5.29832 4.81667 5.29832V7.29832ZM4.95 7.498C4.95 7.57016 4.92282 7.62522 4.89075 7.65917C4.85951 7.69223 4.83302 7.69768 4.81667 7.69768V9.69768C6.04638 9.69768 6.95 8.65771 6.95 7.498H4.95ZM8.5 7.69768C8.48342 7.69768 8.45698 7.69217 8.42587 7.65923C8.39388 7.62537 8.36667 7.57032 8.36667 7.498H6.36667C6.36667 8.65755 7.26984 9.69768 8.5 9.69768V7.69768ZM8.36667 7.498C8.36667 7.42568 8.39388 7.37063 8.42587 7.33677C8.45698 7.30384 8.48342 7.29832 8.5 7.29832V5.29832C7.26984 5.29832 6.36667 6.33846 6.36667 7.498H8.36667ZM8.5 7.29832C8.51658 7.29832 8.54302 7.30384 8.57413 7.33677C8.60611 7.37063 8.63333 7.42568 8.63333 7.498H10.6333C10.6333 6.33846 9.73016 5.29832 8.5 5.29832V7.29832ZM8.63333 7.498C8.63333 7.57016 8.60616 7.62522 8.57409 7.65917C8.54285 7.69223 8.51636 7.69768 8.5 7.69768V9.69768C9.72972 9.69768 10.6333 8.65771 10.6333 7.498H8.63333ZM12.1833 7.69768C12.1668 7.69768 12.1403 7.69217 12.1092 7.65923C12.0772 7.62537 12.05 7.57032 12.05 7.498H10.05C10.05 8.65755 10.9532 9.69768 12.1833 9.69768V7.69768ZM12.05 7.498C12.05 7.42568 12.0772 7.37063 12.1092 7.33677C12.1403 7.30384 12.1668 7.29832 12.1833 7.29832V5.29832C10.9532 5.29832 10.05 6.33846 10.05 7.498H12.05ZM12.1833 7.29832C12.1999 7.29832 12.2263 7.30383 12.2575 7.33677C12.2894 7.37063 12.3167 7.42568 12.3167 7.498H14.3167C14.3167 6.33846 13.4135 5.29832 12.1833 5.29832V7.29832ZM12.3167 7.498C12.3167 7.57016 12.2895 7.62523 12.2574 7.65917C12.2262 7.69223 12.1997 7.69768 12.1833 7.69768V9.69768C13.4131 9.69768 14.3167 8.65771 14.3167 7.498H12.3167Z" fill="#252525" mask="url(#path-1-inside-1_680_8444)"/>
</svg>
