<svg width="24" height="24" viewBox="0 0 24 24" fill="none" xmlns="http://www.w3.org/2000/svg">
<path fill-rule="evenodd" clip-rule="evenodd" d="M2 12C2 17.5228 6.47715 22 12 22C17.5228 22 22 17.5228 22 12C22 6.47715 17.5228 2 12 2C6.47715 2 2 6.47715 2 12ZM12 0C5.37258 0 0 5.37258 0 12C0 18.6274 5.37258 24 12 24C18.6274 24 24 18.6274 24 12C24 5.37258 18.6274 0 12 0Z" fill="#252525"/>
<path d="M6.29131 7.78887C9.16661 10.66 12.0836 13.5728 14.9589 16.4439C15.3756 16.86 15.7923 17.2761 16.209 17.6922C17.1674 18.6493 18.6259 17.1513 17.6675 16.2359C14.7922 13.3231 11.9169 10.4104 8.99992 7.53921C8.58321 7.1231 8.1665 6.707 7.74979 6.29089C6.83303 5.37545 5.37455 6.83183 6.29131 7.78887Z" fill="#252525"/>
<path d="M16.209 6.29089C13.3337 9.20364 10.4167 12.0748 7.54144 14.9459C7.12473 15.362 6.70802 15.7781 6.29131 16.1942C5.37455 17.1513 6.83303 18.6077 7.79146 17.6506C10.6668 14.7795 13.5837 11.8667 16.459 8.99559C16.8757 8.57948 17.2924 8.16337 17.7092 7.74726C18.6259 6.83183 17.1674 5.37545 16.209 6.29089Z" fill="#252525"/>
</svg>
