<svg width="20" height="20" viewBox="0 0 20 20" fill="none" xmlns="http://www.w3.org/2000/svg">
<path d="M15.9863 2.75781C14.5398 2.75781 13.0932 2.75781 11.6467 2.75781C10.2197 2.75781 8.79268 2.75781 7.36567 2.75781C6.82615 2.75781 6.61894 2.96094 6.61894 3.49609C6.61894 4.78516 6.61894 6.07422 6.61894 7.36328C6.61894 7.89844 6.83006 8.11328 7.36176 8.11328C10.2275 8.11328 13.0932 8.11328 15.9629 8.11328C16.4985 8.11328 16.7057 7.90625 16.7057 7.36719C16.7057 6.07031 16.7057 4.77734 16.7057 3.48047C16.7057 2.96484 16.5024 2.75781 15.9863 2.75781ZM15.5133 6.91406C12.9447 6.91406 10.3878 6.91406 7.81919 6.91406V3.95312H15.5133V6.91406ZM7.11937 12.6641C7.20929 12.6758 7.29921 12.6797 7.39304 12.6797C10.247 12.6797 13.0971 12.6797 15.9511 12.6797C16.0411 12.6797 16.1349 12.6758 16.2248 12.6641C16.4946 12.6211 16.6901 12.3984 16.7057 12.1289C16.7213 11.8438 16.5532 11.5938 16.2795 11.5273C16.1818 11.5039 16.0723 11.4961 15.9707 11.4961C14.5398 11.4961 13.105 11.4961 11.674 11.4961C10.2236 11.4961 8.76922 11.4961 7.31876 11.4961C6.91607 11.4961 6.66195 11.6992 6.63458 12.0391C6.6033 12.3477 6.81051 12.6172 7.11937 12.6641ZM7.15847 10.3906C7.18583 10.3945 7.20929 10.3945 7.23666 10.3945C10.1884 10.3945 13.1362 10.3945 16.088 10.3945C16.4125 10.3945 16.6549 10.1914 16.6979 9.90234C16.7487 9.53125 16.5024 9.22656 16.1271 9.21875C15.697 9.21094 15.267 9.21484 14.8369 9.21484C13.7813 9.21484 12.7257 9.21484 11.6701 9.21484C10.204 9.21484 8.73794 9.21484 7.27575 9.21484C6.86134 9.21484 6.59157 9.49609 6.63458 9.87109C6.66586 10.1484 6.88088 10.3633 7.15847 10.3906ZM16.1818 13.7891C16.1036 13.7812 16.0254 13.7852 15.9472 13.7852C14.5202 13.7852 13.0932 13.7852 11.6701 13.7852C10.204 13.7852 8.73794 13.7852 7.27575 13.7852C6.91998 13.7852 6.6815 13.9766 6.63849 14.2891C6.59157 14.6211 6.81442 14.9141 7.14674 14.957C7.18974 14.9648 7.23666 14.9609 7.28357 14.9609C10.2079 14.9609 13.1323 14.9609 16.0567 14.9609C16.4672 14.9609 16.7292 14.7031 16.7096 14.3281C16.6861 14.043 16.4672 13.8164 16.1818 13.7891ZM16.2405 16.082C16.1505 16.0625 16.0606 16.0625 15.9707 16.0625C13.0971 16.0625 10.2275 16.0625 7.35395 16.0625C7.26402 16.0625 7.17019 16.0664 7.08418 16.0859C6.79096 16.1523 6.6033 16.4062 6.63067 16.7031C6.65413 16.9922 6.86525 17.2109 7.15847 17.2383C7.24057 17.2461 7.32658 17.2461 7.41259 17.2461C8.83177 17.2461 10.251 17.2461 11.6701 17.2461C13.1206 17.2461 14.575 17.2461 16.0254 17.2461C16.4398 17.2461 16.694 17.0312 16.7018 16.6797C16.7135 16.3789 16.5337 16.1445 16.2405 16.082ZM19.0397 0H4.30055C3.96433 0.15625 3.85877 0.417969 3.86268 0.785156C3.87832 2.0625 3.8705 3.33594 3.8705 4.61328V4.84375C2.81491 4.84375 1.79059 4.84375 0.77019 4.84375C0.203299 4.84375 0 5.04297 0 5.60547C0 9.51172 0 13.418 0 17.3203C0 17.418 0 17.5156 0.00390959 17.6133C0.0742823 18.4922 0.469151 19.1836 1.22761 19.6289C1.52865 19.8047 1.88833 19.8789 2.22065 20H17.2335C17.3586 19.9688 17.4837 19.9414 17.6088 19.9062C18.727 19.6016 19.462 18.6055 19.462 17.3828C19.462 11.8516 19.458 6.32031 19.4659 0.785156C19.4737 0.425781 19.372 0.160156 19.0397 0ZM3.86268 17.4805C3.81576 18.4297 2.95174 19.0391 2.07208 18.7344C1.51692 18.543 1.1807 18.0273 1.1807 17.3594C1.1807 13.6484 1.1807 9.94141 1.1807 6.23047C1.1807 6.16797 1.18852 6.10547 1.18852 6.03125H3.86268C3.86268 6.12109 3.86268 6.19922 3.86268 6.27344C3.86268 9.94922 3.86268 13.6289 3.86268 17.3047C3.86659 17.3633 3.86659 17.4219 3.86268 17.4805ZM18.2891 17.3477C18.2891 17.5078 18.2734 17.6758 18.2304 17.8281C18.0545 18.4688 17.5463 18.8203 16.8152 18.8203C12.8391 18.8203 8.86696 18.8203 4.8909 18.8203H4.64851C5.03947 18.2227 5.04729 17.6016 5.04729 16.9727C5.04338 11.7969 5.04338 6.62109 5.04338 1.44531C5.04338 1.36328 5.04338 1.28125 5.04338 1.19141H18.2813C18.2852 1.26562 18.2891 1.32812 18.2891 1.39453C18.2891 6.71094 18.2891 12.0312 18.2891 17.3477Z" fill="white"/>
</svg>
