<svg width="21" height="21" viewBox="0 0 21 21" fill="none" xmlns="http://www.w3.org/2000/svg">
<path d="M9.33721 14.6634C9.45353 14.7796 9.61119 14.845 9.77573 14.845C9.94011 14.845 10.0978 14.7797 10.2141 14.6634L12.4278 12.4497C12.6701 12.2075 12.6701 11.8149 12.4278 11.5727C12.1857 11.3306 11.793 11.3306 11.5509 11.5727L9.77573 13.3479L8.96631 12.5385C8.72406 12.2964 8.33153 12.2964 8.08928 12.5385C7.84719 12.7806 7.84719 13.1733 8.08928 13.4155L9.33721 14.6634Z" fill="white"/>
<path d="M10.2589 18.0407C12.9732 18.0407 15.1813 15.8324 15.1813 13.1182C15.1813 10.4039 12.9732 8.1958 10.2589 8.1958C7.54454 8.1958 5.33643 10.4039 5.33643 13.1182C5.33643 15.8324 7.5447 18.0407 10.2589 18.0407ZM10.2589 9.43588C12.2894 9.43588 13.9412 11.0877 13.9412 13.1182C13.9412 15.1486 12.2894 16.8006 10.2589 16.8006C8.22851 16.8006 6.57651 15.1486 6.57651 13.1182C6.57651 11.0877 8.22851 9.43588 10.2589 9.43588Z" fill="white"/>
<path d="M18.5121 1.32035H17.3812V0.620041C17.3812 0.277657 17.1035 0 16.7611 0C16.4187 0 16.1411 0.277657 16.1411 0.620041V1.32035H14.9226V0.620041C14.9226 0.277657 14.645 0 14.3024 0C13.9601 0 13.6824 0.277657 13.6824 0.620041V1.32035H6.83535V0.620041C6.83535 0.277657 6.55769 0 6.21515 0C5.87276 0 5.59511 0.277657 5.59511 0.620041V1.32035H4.37666V0.620041C4.37666 0.277657 4.099 0 3.75645 0C3.41407 0 3.13641 0.277657 3.13641 0.620041V1.32035H2.00528C0.89962 1.32035 0 2.21997 0 3.32579V18.9947C0 20.1004 0.89962 21 2.00528 21H18.5121C19.618 21 20.5174 20.1004 20.5174 18.9947V3.32579C20.5174 2.21997 19.6178 1.32035 18.5121 1.32035ZM19.2772 18.9947C19.2772 19.4166 18.934 19.7599 18.5121 19.7599H2.00528C1.58343 19.7599 1.24008 19.4166 1.24008 18.9947V6.4763H19.2772V18.9947ZM1.24008 3.32579C1.24008 2.90378 1.58343 2.56059 2.00528 2.56059H3.13641V3.2609C3.13641 3.60329 3.41407 3.88094 3.75661 3.88094C4.099 3.88094 4.37666 3.60329 4.37666 3.2609V2.56059H5.59511V3.2609C5.59511 3.60329 5.87276 3.88094 6.21531 3.88094C6.55769 3.88094 6.83535 3.60329 6.83535 3.2609V2.56059H13.6824V3.2609C13.6824 3.60329 13.9601 3.88094 14.3026 3.88094C14.645 3.88094 14.9226 3.60329 14.9226 3.2609V2.56059H16.1411V3.2609C16.1411 3.60329 16.4187 3.88094 16.7611 3.88094C17.1037 3.88094 17.3813 3.60329 17.3813 3.2609V2.56059H18.5121C18.934 2.56059 19.2773 2.90378 19.2773 3.32579V5.23606H1.24008V3.32579Z" fill="white"/>
</svg>
