<svg width="17" height="18" viewBox="0 0 17 18" fill="none" xmlns="http://www.w3.org/2000/svg">
<path d="M16.4898 5.76286C16.8482 6.23337 17.0201 6.73777 16.9981 7.25721C16.9762 7.82936 16.7275 8.27729 16.5227 8.55207C16.7604 9.16186 16.8519 10.1217 16.0583 10.867C15.4768 11.4128 14.4894 11.6575 13.1216 11.5897C12.1598 11.5445 11.3553 11.3601 11.3223 11.3526L11.3187 11.3526C11.1358 11.3187 10.942 11.2773 10.7445 11.2321C10.7299 11.473 10.7701 12.0715 11.2017 13.4191C11.7136 15.0226 11.6844 16.2497 11.1066 17.0703C10.4995 17.9322 9.53037 18 9.24511 18C8.97083 18 8.71849 17.8833 8.5393 17.6688C8.13336 17.1832 8.1809 16.2873 8.2321 15.8733C7.74936 14.5408 6.39624 11.2735 5.25157 10.3664C5.22963 10.3513 5.21135 10.3325 5.19306 10.3137C4.85661 9.94856 4.62987 9.55332 4.47627 9.20703C4.2605 9.32748 4.01548 9.39523 3.75217 9.39523L1.52135 9.39523C0.680217 9.39523 -8.13789e-07 8.69134 -8.89146e-07 7.82936L-1.42388e-06 1.71267C-1.49957e-06 0.846926 0.683874 0.146801 1.52135 0.146801L3.75217 0.146801C4.07765 0.146801 4.38119 0.252195 4.62987 0.432872L5.48928 0.327478C5.62094 0.308658 7.96148 0.00376441 10.3642 0.0526972C10.7994 0.0188208 11.209 -9.79919e-07 11.5893 -1.01317e-06C12.2439 -1.0704e-06 12.8144 0.052697 13.2898 0.158093C14.4089 0.40276 15.1732 0.892094 15.5609 1.61104C15.8571 2.1606 15.8571 2.7064 15.8096 3.0527C16.5373 3.73024 16.6653 4.4793 16.6397 5.00627C16.6251 5.31117 16.5593 5.57089 16.4898 5.76286ZM1.52135 1.16311C1.22512 1.16311 0.987412 1.41154 0.987412 1.71267L0.987412 7.83312C0.987412 8.13802 1.22878 8.38269 1.52135 8.38269L3.75217 8.38269C4.04839 8.38269 4.2861 8.13425 4.2861 7.83312L4.2861 1.71644C4.2861 1.41154 4.04474 1.16688 3.75217 1.16688L1.52135 1.16688L1.52135 1.16311ZM15.5536 6.20326C15.4 6.03764 15.3707 5.78544 15.4878 5.58971C15.4878 5.58595 15.6377 5.32246 15.656 4.9611C15.6816 4.468 15.4512 4.03137 14.9685 3.65872C14.7966 3.52321 14.7271 3.28984 14.8002 3.07905C14.8002 3.07528 14.9575 2.57842 14.7015 2.1079C14.4565 1.65621 13.9116 1.3325 13.0851 1.15182C12.4231 1.00502 11.5235 0.978671 10.419 1.06901L10.3678 1.06901C8.01633 1.01631 5.63922 1.3325 5.61363 1.33626L5.60997 1.33626L5.2406 1.38143C5.26255 1.48683 5.27352 1.59975 5.27352 1.71267L5.27352 7.83312C5.27352 7.99498 5.24792 8.15307 5.20403 8.29987C5.26986 8.55207 5.45271 9.11292 5.88425 9.59097C7.52628 10.931 9.13174 15.4517 9.20123 15.6474C9.23048 15.7265 9.2378 15.813 9.22317 15.8996C9.161 16.3212 9.18294 16.8369 9.27071 16.9912C9.46454 16.9875 9.9875 16.931 10.302 16.4831C10.675 15.9523 10.6604 15.0038 10.2581 13.7465C9.64373 11.8306 9.59254 10.8218 10.0789 10.3777C10.3203 10.1556 10.6421 10.1443 10.8762 10.2309C11.0993 10.2836 11.3114 10.3287 11.5125 10.3626C11.5271 10.3664 11.5454 10.3701 11.56 10.3739C12.6828 10.6261 14.6942 10.7804 15.3927 10.1255C15.9851 9.56838 15.5646 8.83061 15.517 8.75157C15.3817 8.54078 15.4219 8.266 15.6048 8.09661C15.6084 8.09285 15.9924 7.7202 16.0107 7.21957C16.0253 6.88457 15.8718 6.54203 15.5536 6.20326Z" fill="#77808B"/>
</svg>
