<svg width="21" height="21" viewBox="0 0 21 21" fill="none" xmlns="http://www.w3.org/2000/svg">
<path d="M16.0781 21H4.92188C2.20795 21 0 18.792 0 16.0781V4.92188C0 2.20795 2.20795 0 4.92188 0H16.0781C18.792 0 21 2.20795 21 4.92188V16.0781C21 18.792 18.792 21 16.0781 21ZM4.92188 1.64062C3.11259 1.64062 1.64062 3.11259 1.64062 4.92188V16.0781C1.64062 17.8874 3.11259 19.3594 4.92188 19.3594H16.0781C17.8874 19.3594 19.3594 17.8874 19.3594 16.0781V4.92188C19.3594 3.11259 17.8874 1.64062 16.0781 1.64062H4.92188ZM4.92188 15.0938C4.35557 15.0938 3.89648 15.5528 3.89648 16.1191C3.89648 16.6854 4.35557 17.1445 4.92188 17.1445C5.48818 17.1445 5.94727 16.6854 5.94727 16.1191C5.94727 15.5528 5.48818 15.0938 4.92188 15.0938ZM11.6074 16.3242C11.6074 12.5247 8.51632 9.43359 4.7168 9.43359C4.26374 9.43359 3.89648 9.80085 3.89648 10.2539C3.89648 10.707 4.26374 11.0742 4.7168 11.0742C7.61164 11.0742 9.9668 13.4293 9.9668 16.3242C9.9668 16.7773 10.3341 17.1445 10.7871 17.1445C11.2402 17.1445 11.6074 16.7773 11.6074 16.3242ZM16.9805 16.3242C16.9805 13.0485 15.7048 9.96881 13.3885 7.65249C11.0722 5.33617 7.99251 4.06055 4.7168 4.06055C4.26374 4.06055 3.89648 4.4278 3.89648 4.88086C3.89648 5.33392 4.26374 5.70117 4.7168 5.70117C10.5744 5.70117 15.3398 10.4667 15.3398 16.3242C15.3398 16.7773 15.7071 17.1445 16.1602 17.1445C16.6132 17.1445 16.9805 16.7773 16.9805 16.3242Z" fill="white"/>
</svg>
