<svg width="17" height="30" viewBox="0 0 17 30" fill="none" xmlns="http://www.w3.org/2000/svg">
<path d="M0.981607 14.1768L14.9958 0.33925C15.455 -0.113854 16.1984 -0.113092 16.6568 0.341594C17.1148 0.796221 17.1136 1.53268 16.6544 1.98614L3.47435 15.0001L16.6549 28.0139C17.114 28.4674 17.1152 29.2034 16.6573 29.6581C16.4275 29.886 16.1264 30 15.8254 30C15.5251 30 15.2253 29.8868 14.9959 29.6604L0.981607 15.8233C0.76046 15.6054 0.636364 15.309 0.636364 15.0001C0.636364 14.6912 0.760817 14.395 0.981607 14.1768Z" fill="white"/>
</svg>
