<svg width="19" height="19" viewBox="0 0 19 19" fill="none" xmlns="http://www.w3.org/2000/svg">
<path d="M9.50751 17.1075C5.317 17.1075 1.90751 13.698 1.90751 9.50751C1.90751 8.9668 1.96759 8.42609 2.07273 7.91542C1.39684 7.69012 0.826087 7.25455 0.420553 6.69881C0.150198 7.58498 0 8.51621 0 9.50751C0 14.7494 4.25059 19.015 9.50751 19.015C11.3549 19.015 13.0822 18.4893 14.5391 17.5731C14.3289 17.2277 14.2237 16.8372 14.2237 16.4016C14.2237 15.951 14.3589 15.5304 14.5842 15.17C13.2324 16.3715 11.4451 17.1075 9.50751 17.1075ZM9.50751 0C7.53992 0 5.70751 0.600791 4.19051 1.62213C4.85138 1.84743 5.43715 2.283 5.82767 2.83874C6.90909 2.23794 8.15573 1.89249 9.49249 1.89249C13.683 1.89249 17.0925 5.30198 17.0925 9.49249C17.0925 11.4 16.3866 13.1273 15.2451 14.464C15.6055 14.2237 16.0411 14.0885 16.5067 14.0885C16.9123 14.0885 17.3028 14.1937 17.6332 14.3889C18.4893 12.9621 18.985 11.2798 18.985 9.49249C19 4.25059 14.7494 0 9.50751 0ZM9.50751 3.9502C8.38103 3.9502 7.32964 4.28063 6.4585 4.8664C6.41344 6.29328 5.48221 7.47984 4.19051 7.91542C4.04032 8.41107 3.96522 8.95178 3.96522 9.50751C3.96522 12.5715 6.44348 15.0498 9.50751 15.0498C12.5715 15.0498 15.0498 12.5715 15.0498 9.50751C15.0498 6.44348 12.5715 3.9502 9.50751 3.9502Z" fill="#B8B8B8"/>
</svg>
