<svg width="22" height="22" viewBox="0 0 22 22" fill="none" xmlns="http://www.w3.org/2000/svg">
<circle cx="11" cy="11" r="10.25" stroke="#252525" stroke-width="1.5"/>
<path d="M16.6769 6H16.2723C15.615 6 14.9674 6.25161 14.4736 6.69166C14.7235 7.12108 14.864 7.60685 14.8806 8.11411C15.3889 8.13073 15.8757 8.27098 16.3063 8.52045C16.7373 8.0456 16.9991 7.41555 16.9991 6.72528V6.32158C16.9991 6.14398 16.8549 6 16.6769 6Z" fill="#252525"/>
<path d="M16.4792 9.45849C16.0247 9.00517 15.4207 8.75554 14.7782 8.75554C14.5685 8.75541 14.3597 8.7825 14.1569 8.83613C14.2107 8.6338 14.2379 8.42535 14.2377 8.21602C14.2377 7.57475 13.9875 6.97195 13.5332 6.5188C13.3086 6.29453 13.1078 6.09419 13.1078 6.09419C12.982 5.9686 12.778 5.9686 12.6521 6.09419L12.2267 6.51867C11.8782 6.86636 11.6499 7.30216 11.5625 7.77587C11.6403 7.85354 11.7742 7.98714 11.9181 8.13087C12.4698 8.68119 12.7842 9.40588 12.8096 10.1808C13.5858 10.2061 14.3119 10.5197 14.8639 11.0703L15.2195 11.4252C15.6939 11.3379 16.1306 11.1102 16.4793 10.7624L16.9047 10.3379C17.0305 10.2123 17.0305 10.0087 16.9047 9.88308L16.4792 9.45849Z" fill="#252525"/>
<path d="M14.4086 11.5249C13.9542 11.0716 13.3502 10.822 12.7076 10.822C12.4979 10.8218 12.2891 10.8489 12.0864 10.9025C12.1401 10.7002 12.1673 10.4918 12.1672 10.2824C12.1672 9.64116 11.9169 9.03835 11.4626 8.58521C11.238 8.36094 11.0373 8.1606 11.0373 8.1606C10.9115 8.03501 10.7074 8.03501 10.5816 8.1606L10.1562 8.58508C9.80762 8.93277 9.57938 9.36857 9.49195 9.84228L9.84748 10.1972C10.3993 10.7476 10.7137 11.4722 10.739 12.2472C11.5152 12.2725 12.2414 12.5861 12.7933 13.1367L13.1489 13.4916C13.6234 13.4043 14.0601 13.1766 14.4087 12.8288L14.8341 12.4043C14.96 12.2787 14.96 12.0751 14.8341 11.9495L14.4086 11.5249ZM6.09439 16.4273C5.96854 16.5529 5.96854 16.7565 6.09439 16.8821C6.22022 17.0077 6.42427 17.0077 6.55011 16.8821L8.28262 15.1532L7.82694 14.6984L6.09439 16.4273Z" fill="#252525"/>
<path d="M12.3381 13.5917C11.8836 13.1384 11.2796 12.8888 10.6371 12.8888C10.4244 12.8888 10.216 12.9163 10.0158 12.9694C10.0696 12.767 10.0967 12.5586 10.0966 12.3492C10.0966 11.708 9.84631 11.1052 9.39202 10.652L8.96672 10.2274C8.8605 10.1214 8.7258 10.1332 8.73884 10.1332C8.65338 10.1332 8.57142 10.1671 8.51099 10.2274L8.08559 10.6519C7.15583 11.5793 7.13613 13.0995 8.08555 14.0466L8.93627 14.8957C9.88586 15.8428 11.4077 15.8237 12.3381 14.8956L12.7636 14.4711C12.8894 14.3455 12.8893 14.1418 12.7636 14.0163L12.3381 13.5917Z" fill="#252525"/>
</svg>
