
<svg xmlns="http://www.w3.org/2000/svg" version="1.1" xmlns:xlink="http://www.w3.org/1999/xlink" preserveAspectRatio="none" x="0px" y="0px" width="200px" height="200px" viewBox="0 0 200 200">
<defs>
<g id="Layer1_1_MEMBER_0_FILL">
<path fill="#FFFFFF" stroke="none" d="
M -109.3 157.3
L -107.45 127.5
Q -117.5 106.35 -132.85 95.25 -125.95 138.75 -109.3 157.3
M -59.1 109.4
Q -48.95 107.05 -43 113.2 -41.7 102.2 -52.55 96.4 -51.05 102.6 -59.1 109.4
M -59.1 109.4
L -76.7 120.65
Q -61.1 132.95 -49.35 130.4 -39.75 127.2 -39.55 118.2 -41.05 115.2 -43 113.2 -48.95 107.05 -59.1 109.4
M -87.45 86.9
Q -95.75 86.95 -98.65 94.25 -101.65 110.2 -76.7 120.65 -72.85 104.5 -77.45 95.6 -80.55 89.65 -87.45 86.9
M -66.9 88.05
Q -71.75 89.65 -77.45 95.6 -72.85 104.5 -76.7 120.65
L -59.1 109.4
Q -51.05 102.6 -52.55 96.4 -53.25 93.55 -56 90.85 -60.8 86.05 -66.9 88.05
M -77.45 95.6
Q -71.75 89.65 -66.9 88.05 -73.35 81.65 -87.45 86.9 -80.55 89.65 -77.45 95.6
M -98.4 41.4
Q -93.65 46.3 -97.5 57 -89.25 49.35 -80.45 51.9 -85.1 40.95 -98.4 41.4
M -122 54
Q -128.05 50.15 -136 51.3 -143.7 55.8 -142.5 64.2 -136.7 80.65 -107.85 76.95 -112.9 59.85 -122 54
M -136 51.3
Q -128.05 50.15 -122 54 -119.85 45.4 -116.2 41.3 -125.65 38.8 -136 51.3
M -104.55 38.05
Q -111.6 36.15 -116.2 41.3 -119.85 45.4 -122 54 -112.9 59.85 -107.85 76.95
L -97.5 57
Q -93.65 46.3 -98.4 41.4 -100.55 39.1 -104.55 38.05
M -77.1 71.35
Q -69.85 63.2 -74.5 54.7 -77.5 52.7 -80.45 51.9 -89.25 49.35 -97.5 57
L -107.85 76.95
Q -86.65 80.05 -77.1 71.35 Z"/>
</g>

<path id="Layer1_0_1_STROKES" stroke="#000000" stroke-width="5" stroke-linejoin="round" stroke-linecap="round" fill="none" d="
M 178.86793670654296 35.21062469482422
L 159.48447113037108 35.21062469482422
M 178.86793670654296 35.21062469482422
L 178.86793670654296 54.539642333984375
M 21.13226318359375 164.85116271972657
L 178.86793670654296 35.21062469482422"/>

<path id="Layer1_1_MEMBER_0_1_STROKES" stroke="#000000" stroke-width="5" stroke-linejoin="round" stroke-linecap="round" fill="none" d="
M 83.78404769897462 59.39858627319336
Q 108.15194931030273 62.96181716918946 119.12899932861329 52.961782073974604 127.462361907959 43.59393310546875 122.11751556396484 33.82378387451172 118.66922760009766 31.524925231933597 115.27841110229492 30.605381774902344 105.16343307495117 27.674337005615232 95.6806411743164 36.467471313476565
L 83.78404769897462 59.39858627319336 Z
M 83.78404769897462 59.39858627319336
Q 77.97942962646485 39.7433448791504 67.51962280273438 33.01918334960938 60.56557540893553 28.593880462646485 51.4276123046875 29.9157241821289 42.577006530761736 35.08815612792969 43.956321716308594 44.74336242675781 50.62301177978517 63.6514747619629 83.78404769897462 59.39858627319336 Z
M 107.23240585327149 70.83540802001954
Q 115.16346817016601 73.99633865356446 118.72669906616211 80.83544311523437 125.27844619750977 73.99633865356446 130.8531784057617 72.15725173950196 123.43935928344727 64.80090408325196 107.23240585327149 70.83540802001954 Z
M 107.23240585327149 70.83540802001954
Q 97.69214248657227 70.89287948608398 94.35879745483398 79.28371353149414 90.91050949096679 97.61711120605469 119.58877105712891 109.62864761352539 124.0140739440918 91.06536407470703 118.72669906616211 80.83544311523437
M 130.8531784057617 72.15725173950196
Q 137.864697265625 69.85839309692383 143.3819580078125 75.37565383911132 146.54288864135742 78.4791130065918 147.34748916625978 81.75498657226564 159.81879730224608 88.42167663574219 158.3245391845703 101.06539916992189 160.565926361084 103.36425781250001 162.2900703430176 106.8125457763672 162.06018447875977 117.15740966796876 151.02566299438476 120.83558349609375 137.51986846923828 123.76662826538085 119.58877105712891 109.62864761352539
L 139.8187271118164 96.69756774902345
Q 149.07163314819337 88.8814483642578 147.34748916625978 81.75498657226564
M 51.4276123046875 29.9157241821289
Q 63.3242057800293 15.54785766601562 74.18631286621093 18.421430969238276 79.47368774414062 12.50186996459961 87.57716445922851 14.685785675048823 92.17488174438476 15.892686462402342 94.64615478515624 18.536373901367188 109.93356475830079 18.019130706787113 115.27841110229492 30.605381774902344
M 94.64615478515624 18.536373901367188
Q 100.10594406127929 24.16857757568359 95.6806411743164 36.467471313476565
M 67.51962280273438 33.01918334960938
Q 69.99089584350585 23.134091186523438 74.18631286621093 18.421430969238276
M 82.11737518310547 151.75523223876954
L 84.24381942749024 169.11161499023436 84.24381942749024 156.1805351257324 82.11737518310547 151.75523223876954 Z
M 82.11737518310547 151.75523223876954
Q 62.97937698364257 130.4333183288574 55.04831466674804 80.4331428527832 72.69205474853516 93.19180831909179 84.24381942749024 117.50223846435547
L 84.24381942749024 61.86985931396484
M 84.24381942749024 117.50223846435547
L 82.11737518310547 151.75523223876954
M 84.24381942749024 156.1805351257324
L 84.24381942749024 117.50223846435547
M 158.3245391845703 101.06539916992189
Q 151.48543472290038 93.99640884399415 139.8187271118164 96.69756774902345"/>

<path id="Layer1_1_MEMBER_1_1_STROKES" stroke="#000000" stroke-width="5" stroke-linejoin="round" stroke-linecap="round" fill="none" d="
M 84.79381942749025 168.06161499023438
Q 88.64440765380861 119.15339736938478 120.13877105712892 108.57864761352539"/>
</defs>

<g transform="matrix( 1.088958740234375, 0, 0, 1.088958740234375, -14.15,8.15) ">
<use xlink:href="#Layer1_0_1_STROKES" transform="matrix( 0.918304443359375, 0, 0, 0.918304443359375, 12.95,-7.45) "/>
</g>

<g transform="matrix( 1.1494293212890625, 0, 0, 1.1494293212890625, 207.75,-29.05) ">
<use xlink:href="#Layer1_1_MEMBER_0_FILL"/>

<use xlink:href="#Layer1_1_MEMBER_0_1_STROKES" transform="matrix( 0.8699951171875, 0, 0, 0.8699951171875, -180.7,25.25) "/>
</g>

<g transform="matrix( 1.1494293212890625, 0, 0, 1.1494293212890625, 208.3,-30.1) ">
<use xlink:href="#Layer1_1_MEMBER_1_1_STROKES" transform="matrix( 0.8699951171875, 0, 0, 0.8699951171875, -181.2,26.15) "/>
</g>
</svg>
