
<svg xmlns="http://www.w3.org/2000/svg" version="1.1" xmlns:xlink="http://www.w3.org/1999/xlink" preserveAspectRatio="none" x="0px" y="0px" width="200px" height="200px" viewBox="0 0 200 200">
<defs>
<g id="Layer1_0_MEMBER_0_FILL">
<path fill="#FFFFFF" stroke="none" d="
M 169.4 74.65
L 163 61.7 142.4 58.3 123.1 63.6 61.9 63.6 52.75 56.6 41.1 59.55 25.35 80.4 30.05 88.45 45.95 88.45 56.15 113.1 61.45 115.65 66.35 131.35 66.35 145.4 73.6 145.4 77.6 117.15 110.55 120.1 144.1 115 152.6 129.45 147.5 146.65 157.05 146.65 169.4 112.65 169.4 74.65
M 44.05 67.65
L 44.05 71.65 51.9 71.65 54.65 65.5 51.9 71.65 44.05 71.65 44.05 67.65
M 79.1 99.5
L 79.1 103.35 77.6 109.5 79.1 103.35 79.1 99.5
M 141.35 107.8
L 138.8 101.2 138.8 93.35 138.8 101.2 141.35 107.8 Z"/>
</g>

<path id="Layer1_0_MEMBER_0_1_STROKES" stroke="#000000" stroke-width="5" stroke-linejoin="round" stroke-linecap="round" fill="none" d="
M 11.801970672607425 69.18435668945314
L 17.559140777587892 79.04504165649415 37.035524749755865 79.04504165649415 49.529808807373044 109.23956146240234 56.02193679809571 112.36313247680665 62.02409286499022 131.59453048706052 62.02409286499022 148.80479431152344 70.90483398437499 148.80479431152344 75.80455322265624 114.20052719116212 116.16599044799804 117.81407012939452 157.26238555908202 111.56692810058594 167.67428894042968 129.26716384887692 161.4271469116211 150.33595657348633 173.1252265930176 150.33595657348633 188.25310974121095 108.68834304809572 188.25310974121095 62.14101028442384 180.41355895996094 46.27816925048829 155.1800048828125 42.113407897949216 131.53885955810546 48.60553588867188 56.57315521240234 48.60553588867188 45.365047454833984 40.03102722167969 31.094615173339847 43.64457015991211 11.801970672607425 69.18435668945314 Z
M 34.70815811157226 53.566501617431655
L 34.70815811157226 58.466220855712905 44.323857116699216 58.466220855712905 47.692414093017575 50.93290252685547
M 77.64194793701171 92.5805160522461
L 77.64194793701171 97.29649581909179 75.80455322265624 104.82981414794922
M 153.89382858276366 102.74743347167968
L 150.7702575683594 94.66289672851563 150.7702575683594 85.04719772338866"/>

<path id="Layer1_1_1_STROKES" stroke="#000000" stroke-width="2.5" stroke-linejoin="round" stroke-linecap="round" fill="none" d="
M 91.8 182.65
L 91.8 170.5"/>

<path id="Layer1_1_MEMBER_0_1_STROKES" stroke="#000000" stroke-width="2.5" stroke-linejoin="round" stroke-linecap="round" fill="none" d="
M 120.3 182.65
L 112.55 182.65 112.55 176.5 112.55 170.5 120.3 170.45
M 112.55 176.5
L 120.3 176.45"/>

<path id="Layer1_1_MEMBER_1_1_STROKES" stroke="#000000" stroke-width="2.5" stroke-linejoin="round" stroke-linecap="round" fill="none" d="
M 102.05 170.3
L 102.05 182.65 106.1 182.65"/>

<path id="Layer1_1_MEMBER_2_1_STROKES" stroke="#000000" stroke-width="2.5" stroke-linejoin="round" stroke-linecap="round" fill="none" d="
M 79.35 170.55
L 84 182.35 88.95 170.5"/>
</defs>

<g transform="matrix( 1.2249298095703125, 0, 0, 1.2249298095703125, -19.25,-29.3) ">
<use xlink:href="#Layer1_0_MEMBER_0_FILL"/>

<use xlink:href="#Layer1_0_MEMBER_0_1_STROKES" transform="matrix( 0.8163604736328125, 0, 0, 0.8163604736328125, 15.7,23.9) "/>
</g>

<g transform="matrix( 1, 0, 0, 1, -1.25,0) ">
<use xlink:href="#Layer1_1_1_STROKES"/>
</g>

<g transform="matrix( 1, 0, 0, 1, -1.25,0) ">
<use xlink:href="#Layer1_1_MEMBER_0_1_STROKES"/>
</g>

<g transform="matrix( 1, 0, 0, 1, -21.05,0) ">
<use xlink:href="#Layer1_1_MEMBER_1_1_STROKES"/>
</g>

<g transform="matrix( 1, 0, 0, 1, 17.25,0) ">
<use xlink:href="#Layer1_1_MEMBER_2_1_STROKES"/>
</g>
</svg>
