
<svg xmlns="http://www.w3.org/2000/svg" version="1.1" xmlns:xlink="http://www.w3.org/1999/xlink" preserveAspectRatio="none" x="0px" y="0px" width="200px" height="200px" viewBox="0 0 200 200">
<defs>
<g id="Layer1_1_FILL">
<path fill="#FFFFFF" stroke="none" d="
M 73.15 76.55
Q 85.4 105.15 103.3 100.9 100.05 87.2 84.3 80.6
L 73.15 76.55
M 103.3 126.65
Q 100.05 112.95 84.3 106.35
L 73.15 102.35
Q 85.4 130.9 103.3 126.65
M 133.85 115.35
L 122.75 119.35
Q 106.95 125.95 103.75 139.7 121.65 143.95 133.85 115.35
M 133.85 89.6
L 122.75 93.6
Q 106.95 100.2 103.75 113.9 121.65 118.15 133.85 89.6
M 133.85 63.2
L 122.75 67.25
Q 106.95 73.85 104.45 88.7 121.65 91.8 133.85 63.2
M 102.6 75.7
Q 100.05 60.8 84.3 54.2
L 73.15 50.2
Q 85.4 78.8 102.6 75.7
M 108.85 28.65
L 104.25 38.25
Q 98.5 52.6 108.4 64.55 123.5 56.3 108.85 28.65 Z"/>
</g>

<path id="Layer1_0_1_STROKES" stroke="#000000" stroke-width="5" stroke-linejoin="round" stroke-linecap="round" fill="none" d="
M 178.86793670654296 35.21062469482422
L 159.48447113037108 35.21062469482422
M 178.86793670654296 35.21062469482422
L 178.86793670654296 54.539642333984375
M 21.13226318359375 164.85116271972657
L 178.86793670654296 35.21062469482422"/>

<path id="Layer1_1_1_STROKES" stroke="#000000" stroke-width="5" stroke-linejoin="round" stroke-linecap="round" fill="none" d="
M 104.959765625 51.5610107421875
Q 123.23017578125 42.114599609375 105.50424804687499 10.454809570312499
L 99.938427734375 21.4469970703125
Q 92.98115234375 37.87802734375 104.959765625 51.5610107421875 Z
M 97.94199218749999 64.327978515625
Q 77.1306640625 67.8775390625 62.308642578125 35.12998046875
L 75.79970703125 39.71005859375
Q 94.856591796875 47.2671875 97.94199218749999 64.327978515625 Z
M 100.180419921875 79.213232421875
Q 120.991748046875 82.76279296875 135.753271484375 50.015234375
L 122.322705078125 54.6525634765625
Q 103.20532226562501 62.2096923828125 100.180419921875 79.213232421875 Z
M 99.333447265625 108.067724609375
Q 120.991748046875 112.9340576171875 135.753271484375 80.24375
L 122.322705078125 84.823828125
Q 103.20532226562501 92.38095703125 99.333447265625 108.067724609375 Z
M 99.333447265625 137.609228515625
Q 120.991748046875 142.4755615234375 135.753271484375 109.7280029296875
L 122.322705078125 114.3080810546875
Q 103.20532226562501 121.8652099609375 99.333447265625 137.609228515625 Z
M 99.333447265625 137.609228515625
L 99.333447265625 171.15830078125
M 98.78896484375 122.6667236328125
Q 77.1306640625 127.533056640625 62.308642578125 94.8427490234375
L 75.79970703125 99.4228271484375
Q 94.856591796875 106.9799560546875 98.78896484375 122.6667236328125 Z
M 98.78896484375 93.182470703125
Q 77.1306640625 98.0488037109375 62.308642578125 65.3012451171875
L 75.79970703125 69.93857421875
Q 94.856591796875 77.495703125 98.78896484375 93.182470703125 Z"/>
</defs>

<g transform="matrix( 1.088958740234375, 0, 0, 1.088958740234375, -14.15,8.15) ">
<use xlink:href="#Layer1_0_1_STROKES" transform="matrix( 0.918304443359375, 0, 0, 0.918304443359375, 12.95,-7.45) "/>
</g>

<g transform="matrix( 1.2099609375, 0, 0, 1.14501953125, -26.2,-22.35) ">
<use xlink:href="#Layer1_1_FILL"/>

<use xlink:href="#Layer1_1_1_STROKES" transform="matrix( 0.8264617919921875, 0, 0, 0.8733367919921875, 21.65,19.5) "/>
</g>
</svg>
