
<svg xmlns="http://www.w3.org/2000/svg" version="1.1" xmlns:xlink="http://www.w3.org/1999/xlink" preserveAspectRatio="none" x="0px" y="0px" width="200px" height="200px" viewBox="0 0 200 200">
<defs>
<g id="Layer1_0_FILL">
<path fill="#FFFFFF" stroke="none" d="
M -127 104.5
L -127 88.9 -194.4 88.9 -194.4 104.5 -127 104.5
M -59.55 88.9
L -127 88.9 -127 104.5 -59.55 104.5 -59.55 88.9
M -108.5 142.75
Q -108.8 136.3 -110.5 133.7 -112.65 130.3 -116.45 128.45 -120.25 126.5 -123.8 126.7
L -127 126.7 -127 155.3 -127 126.7 -127 122.55 -134.3 122.55
Q -138.1 124.85 -140.25 128.85
L -142.25 137
Q -142.35 138.35 -142.3 139.8 -142.15 146.65 -142.35 155.15 -142.15 146.65 -142.3 139.8 -142.35 138.35 -142.25 137 -152.2 138.25 -155.55 143.15 -158.9 148 -158.8 154.95 -158.9 148 -155.55 143.15 -152.2 138.25 -142.25 137 -142 132.05 -140.25 128.85 -138.1 124.85 -134.3 122.55 -130.55 120.25 -127 120.45
L -127 104.5 -194.4 104.5 -194.4 171.45 -59.55 171.45 -59.55 104.5 -127 104.5 -127 120.45 -123.8 126.7
Q -120.25 126.5 -116.45 128.45 -112.65 130.3 -110.5 133.7 -108.8 136.3 -108.5 142.75 -99.6 142.15 -96.4 147.25 -93.2 152.35 -93.4 155.25 -93.2 152.35 -96.4 147.25 -99.6 142.15 -108.5 142.75 -108.6 148.5 -108.45 155.6 -108.6 148.5 -108.5 142.75
M -93.4 118.75
Q -92.55 118.75 -91.95 119.3 -91.9 119.35 -91.85 119.4 -91.2 120.05 -91.2 120.95 -91.2 121.85 -91.85 122.5 -92.5 123.15 -93.4 123.15 -94.3 123.15 -94.95 122.5 -95.3 122.15 -95.45 121.75 -95.6 121.35 -95.6 120.95 -95.6 120.05 -94.95 119.4 -94.3 118.75 -93.4 118.75
M -75.65 127.85
Q -75 128.5 -75 129.4 -75 130.3 -75.65 130.95 -76.3 131.6 -77.2 131.6 -78.1 131.6 -78.75 130.95 -79.1 130.6 -79.25 130.2 -79.4 129.8 -79.4 129.4 -79.4 128.5 -78.75 127.85 -78.1 127.2 -77.2 127.2 -76.35 127.2 -75.75 127.75 -75.7 127.8 -75.65 127.85
M -177 154.65
Q -177.15 154.25 -177.15 153.85 -177.15 152.95 -176.5 152.3 -175.85 151.65 -174.95 151.65 -174.1 151.65 -173.5 152.2 -173.45 152.25 -173.4 152.3 -172.75 152.95 -172.75 153.85 -172.75 154.75 -173.4 155.4 -174.05 156.05 -174.95 156.05 -175.85 156.05 -176.5 155.4 -176.85 155.05 -177 154.65
M -177.15 153.85
Q -177.15 154.25 -177 154.65 -176.4 155.2 -175.55 155.2 -174.65 155.2 -174 154.55 -173.35 153.9 -173.35 153 -173.35 152.6 -173.5 152.2 -174.1 151.65 -174.95 151.65 -175.85 151.65 -176.5 152.3 -177.15 152.95 -177.15 153.85
M -127 72.85
L -127 68.1
Q -130.4 42.9 -158.9 38.3 -157.75 68.65 -127 72.85
M -127 68.1
L -127 72.85
Q -95.8 69.65 -93.1 39.25 -118.2 41.15 -127 68.1 Z"/>
</g>

<path id="Layer1_0_1_STROKES" stroke="#000000" stroke-width="5" stroke-linejoin="round" stroke-linecap="round" fill="none" d="
M 99.9849609375 56.44565429687499
L 99.9849609375 75.86552734375 181.59682617187502 75.86552734375 181.59682617187502 94.74091796875 181.59682617187502 175.747802734375 18.43359375 175.747802734375 18.43359375 94.74091796875 18.43359375 75.86552734375 99.9849609375 75.86552734375 99.9849609375 94.74091796875 181.59682617187502 94.74091796875
M 99.9849609375 50.69833984374999
L 99.9849609375 56.44565429687499
Q 137.73574218750002 52.573779296875 141.00263671875 15.790966796875 110.63261718749999 18.089892578125 99.9849609375 50.69833984374999 Z
M 99.9849609375 50.69833984374999
Q 95.87109375 20.20732421875 61.38720703125 14.641503906249998 62.778662109375006 51.363818359375 99.9849609375 56.44565429687499
M 122.42973632812499 156.569921875
Q 122.24824218750001 147.97919921875 122.36923828125 141.021923828125 122.00625000000002 133.21767578125002 119.94931640625 130.07177734375 117.347900390625 125.95791015625001 112.75004882812499 123.71948242187499 108.152197265625 121.36005859375 103.85683593750002 121.60205078125001
M 99.9849609375 121.60205078125001
L 99.9849609375 156.20693359375002
M 140.6396484375 156.146435546875
Q 140.881640625 152.637548828125 137.009765625 146.466748046875 133.137890625 140.29594726562502 122.36923828125 141.021923828125
M 83.952978515625 124.20346679687499
Q 86.55439453125001 119.36362304687499 91.15224609375 116.58071289062498
M 81.47255859375 137.45253906250002
Q 81.41206054687501 135.698095703125 81.533056640625 134.0646484375
M 81.41206054687501 156.02543945312502
Q 81.654052734375 145.74077148437502 81.47255859375 137.45253906250002
M 99.9849609375 114.03979492187501
L 99.9849609375 116.58071289062498 99.9849609375 121.60205078125001
M 99.9849609375 94.74091796875
L 99.9849609375 114.03979492187501
Q 95.689599609375 113.797802734375 91.15224609375 116.58071289062498
M 61.508203124999994 155.783447265625
Q 61.38720703125 147.37421875 65.440576171875 141.50590820312502 69.49394531250002 135.577099609375 81.533056640625 134.0646484375 81.835546875 128.07534179687502 83.952978515625 124.20346679687499
M 18.43359375 94.74091796875
L 99.9849609375 94.74091796875"/>

<path id="Layer1_0_2_STROKES" stroke="#000000" stroke-width="4.4" stroke-linejoin="round" stroke-linecap="round" fill="none" d="
M 143.3015625 114.64477539062501
Q 143.3015625 115.73374023437499 142.515087890625 116.52021484375 141.72861328125 117.306689453125 140.6396484375 117.306689453125 139.55068359375002 117.306689453125 138.764208984375 116.52021484375 138.34072265625002 116.096728515625 138.159228515625 115.612744140625 137.977734375 115.12875976562499 137.977734375 114.64477539062501 137.977734375 113.55581054687498 138.764208984375 112.7693359375 139.55068359375002 111.982861328125 140.6396484375 111.982861328125 141.66811523437502 111.982861328125 142.394091796875 112.64833984374998 142.45458984375 112.70883789062499 142.515087890625 112.7693359375 143.3015625 113.55581054687498 143.3015625 114.64477539062501 Z
M 162.9029296875 124.8689453125
Q 162.9029296875 125.95791015625001 162.116455078125 126.74438476562499 161.32998046875002 127.53085937499999 160.241015625 127.53085937499999 159.15205078125 127.53085937499999 158.365576171875 126.74438476562499 157.94208984375 126.32089843749999 157.760595703125 125.83691406249999 157.5791015625 125.35292968750001 157.5791015625 124.8689453125 157.5791015625 123.77998046875 158.365576171875 122.99350585937499 159.15205078125 122.20703125000001 160.241015625 122.20703125000001 161.269482421875 122.20703125000001 161.995458984375 122.872509765625 162.05595703125 122.93300781249998 162.116455078125 122.99350585937499 162.9029296875 123.77998046875 162.9029296875 124.8689453125 Z
M 39.486914062500006 155.42045898437502
Q 39.305419921875 154.936474609375 39.305419921875 154.452490234375 39.305419921875 153.363525390625 40.091894531250006 152.57705078125002 40.87836914062501 151.79057617187502 41.96733398437502 151.79057617187502 42.99580078125001 151.79057617187502 43.721777343750006 152.4560546875 43.78227539062502 152.516552734375 43.8427734375 152.57705078125002 44.629248046875006 153.363525390625 44.629248046875006 154.452490234375 44.629248046875006 155.541455078125 43.8427734375 156.32792968750002 43.056298828124994 157.11440429687502 41.96733398437502 157.11440429687502 40.87836914062501 157.11440429687502 40.091894531250006 156.32792968750002 39.66840820312501 155.90444335937502 39.486914062500006 155.42045898437502 Z"/>
</defs>

<g transform="matrix( 1.2099609375, 0, 0, 1.2099609375, 253.65,-31.7) ">
<use xlink:href="#Layer1_0_FILL"/>

<use xlink:href="#Layer1_0_1_STROKES" transform="matrix( 0.8264617919921875, 0, 0, 0.8264617919921875, -209.6,26.15) "/>

<use xlink:href="#Layer1_0_2_STROKES" transform="matrix( 0.8264617919921875, 0, 0, 0.8264617919921875, -209.6,26.15) "/>
</g>
</svg>
