
<svg xmlns="http://www.w3.org/2000/svg" version="1.1" xmlns:xlink="http://www.w3.org/1999/xlink" preserveAspectRatio="none" x="0px" y="0px" width="200px" height="200px" viewBox="0 0 200 200">
<defs>
<g id="Layer1_1_MEMBER_0_FILL">
<path fill="#FFFFFF" stroke="none" d="
M 169.4 74.65
L 163 61.7 142.4 58.3 123.1 63.6 61.9 63.6 52.75 56.6 41.1 59.55 25.35 80.4 30.05 88.45 45.95 88.45 56.15 113.1 61.45 115.65 66.35 131.35 66.35 145.4 73.6 145.4 77.6 117.15 110.55 120.1 144.1 115 152.6 129.45 147.5 146.65 157.05 146.65 169.4 112.65 169.4 74.65
M 44.05 67.65
L 44.05 71.65 51.9 71.65 54.65 65.5 51.9 71.65 44.05 71.65 44.05 67.65
M 79.1 99.5
L 79.1 103.35 77.6 109.5 79.1 103.35 79.1 99.5
M 141.35 107.8
L 138.8 101.2 138.8 93.35 138.8 101.2 141.35 107.8 Z"/>
</g>

<path id="Layer1_0_1_STROKES" stroke="#000000" stroke-width="5" stroke-linejoin="round" stroke-linecap="round" fill="none" d="
M 178.86793670654296 35.21062469482422
L 159.48447113037108 35.21062469482422
M 178.86793670654296 35.21062469482422
L 178.86793670654296 54.539642333984375
M 21.13226318359375 164.85116271972657
L 178.86793670654296 35.21062469482422"/>

<path id="Layer1_1_MEMBER_0_1_STROKES" stroke="#000000" stroke-width="5" stroke-linejoin="round" stroke-linecap="round" fill="none" d="
M 23.151578521728517 79.44672241210938
L 28.167058563232423 88.03706588745118 45.13432083129883 88.03706588745118 56.01897964477539 114.34165802001954 61.67473373413086 117.06282272338868 66.90363845825195 133.8166603088379 66.90363845825195 148.80974426269532 74.640283203125 148.80974426269532 78.90877685546874 118.66350784301758 114.07049331665038 121.8115219116211 149.8724838256836 116.36919250488282 158.94303283691406 131.78912582397462 153.50070343017578 150.14364852905274 163.69173202514648 150.14364852905274 176.8707061767578 113.86145248413087 176.8707061767578 73.31076278686524 170.0411163330078 59.49151458740234 148.0583740234375 55.863294982910155 127.4628921508789 61.519049072265624 62.15493927001953 61.519049072265624 52.390760040283205 54.04918518066406 39.95877227783203 57.19719924926758 23.151578521728517 79.44672241210938 Z
M 43.10678634643555 65.84089889526368
L 43.10678634643555 70.10939254760743 51.48370513916016 70.10939254760743 54.418294525146486 63.546583557128905
M 80.50946197509765 99.82877960205079
L 80.50946197509765 103.93720474243165 78.90877685546874 110.50001373291016
M 146.93789443969726 108.68590393066407
L 144.21672973632812 101.64288940429688 144.21672973632812 93.26597061157227"/>
</defs>

<g transform="matrix( 1.088958740234375, 0, 0, 1.088958740234375, -14.15,8.15) ">
<use xlink:href="#Layer1_0_1_STROKES" transform="matrix( 0.918304443359375, 0, 0, 0.918304443359375, 12.95,-7.45) "/>
</g>

<g transform="matrix( 1.0671234130859375, 0, 0, 1.0671234130859375, -3.9,-6.35) ">
<use xlink:href="#Layer1_1_MEMBER_0_FILL"/>

<use xlink:href="#Layer1_1_MEMBER_0_1_STROKES" transform="matrix( 0.9370880126953125, 0, 0, 0.9370880126953125, 3.65,5.95) "/>
</g>
</svg>
