// Jest Snapshot v1, https://goo.gl/fbAQLP

exports[`renders homepage unchanged 1`] = `
<div>
  <div
    class="flex min-h-screen flex-col items-center justify-center py-2"
  >
    <main
      class="flex w-full flex-1 flex-col items-center justify-center px-20 text-center"
    >
      <h1
        class="text-6xl font-bold"
      >
        Welcome to
         
        <a
          class="text-blue-600"
          href="https://nextjs.org"
        >
          Next.js!
        </a>
      </h1>
      <p
        class="mt-3 text-2xl"
      >
        Get started by editing
         
        <code
          class="rounded-md bg-gray-100 p-3 font-mono text-lg"
        >
          pages/[id].tsx
        </code>
      </p>
      <div
        class="mt-6 flex max-w-4xl flex-wrap items-center justify-around sm:w-full"
      >
        <a
          class="mt-6 w-96 rounded-xl border p-6 text-left hover:text-blue-600 focus:text-blue-600"
          href="https://nextjs.org/docs"
        >
          <h3
            class="text-2xl font-bold"
          >
            Documentation →
          </h3>
          <p
            class="mt-4 text-xl"
          >
            Find in-depth information about Next.js features and API.
          </p>
        </a>
        <a
          class="mt-6 w-96 rounded-xl border p-6 text-left hover:text-blue-600 focus:text-blue-600"
          href="https://nextjs.org/learn"
        >
          <h3
            class="text-2xl font-bold"
          >
            Learn →
          </h3>
          <p
            class="mt-4 text-xl"
          >
            Learn about Next.js in an interactive course with quizzes!
          </p>
        </a>
        <a
          class="mt-6 w-96 rounded-xl border p-6 text-left hover:text-blue-600 focus:text-blue-600"
          href="https://github.com/vercel/next.js/tree/canary/examples"
        >
          <h3
            class="text-2xl font-bold"
          >
            Examples →
          </h3>
          <p
            class="mt-4 text-xl"
          >
            Discover and deploy boilerplate example Next.js projects.
          </p>
        </a>
        <a
          class="mt-6 w-96 rounded-xl border p-6 text-left hover:text-blue-600 focus:text-blue-600"
          href="https://vercel.com/import?filter=next.js&utm_source=create-next-app&utm_medium=default-template&utm_campaign=create-next-app"
        >
          <h3
            class="text-2xl font-bold"
          >
            Deploy →
          </h3>
          <p
            class="mt-4 text-xl"
          >
            Instantly deploy your Next.js site to a public URL with Vercel.
          </p>
        </a>
      </div>
    </main>
    <footer
      class="flex h-24 w-full items-center justify-center border-t"
    >
      <a
        class="flex items-center justify-center gap-2"
        href="https://vercel.com?utm_source=create-next-app&utm_medium=default-template&utm_campaign=create-next-app"
        rel="noopener noreferrer"
        target="_blank"
      >
        Powered by
         
        <span
          style="box-sizing: border-box; display: inline-block; overflow: hidden; background: none; opacity: 1; border: 0px; margin: 0px; padding: 0px; position: relative; max-width: 100%;"
        >
          <span
            style="box-sizing: border-box; display: block; background: none; opacity: 1; border: 0px; margin: 0px; padding: 0px; max-width: 100%;"
          >
            <img
              alt=""
              aria-hidden="true"
              src="data:image/svg+xml,%3csvg%20xmlns=%27http://www.w3.org/2000/svg%27%20version=%271.1%27%20width=%2772%27%20height=%2716%27/%3e"
              style="display: block; max-width: 100%; background: none; opacity: 1; border: 0px; margin: 0px; padding: 0px;"
            />
          </span>
          <img
            alt="Vercel Logo"
            data-nimg="intrinsic"
            decoding="async"
            src="data:image/gif;base64,R0lGODlhAQABAIAAAAAAAP///yH5BAEAAAAALAAAAAABAAEAAAIBRAA7"
            style="position: absolute; top: 0px; left: 0px; bottom: 0px; right: 0px; box-sizing: border-box; padding: 0px; margin: auto; display: block; width: 0px; height: 0px; min-width: 100%; max-width: 100%; min-height: 100%; max-height: 100%;"
          />
          <noscript />
        </span>
      </a>
    </footer>
  </div>
</div>
`;
